{
  "status": "ok",
  "announce": "Happy Cuan",
  "adsData": {
    "adsLeft": [
      {
        "url": "https://www.vultr.com/?ref=8539427",
        "img": "PGltZyBzcmM9Imh0dHBzOi8vd3d3LnZ1bHRyLmNvbS9tZWRpYS9iYW5uZXJzL2Jhbm5lcl8zMDB4MjUwLnBuZyIgd2lkdGg9IjIwMCIgaGVpZ2h0PSIxNTAiPg=="
      },
      {
        "url": "1002",
        "img": "PGltZyBzcmM9Imh0dHBzOi8vd3d3LnZ1bHRyLmNvbS9tZWRpYS9iYW5uZXJzL2Jhbm5lcl8zMDB4MjUwLnBuZyIgd2lkdGg9IjIwMCIgaGVpZ2h0PSIxNTAiPg=="
      },
      {
        "url": "1003",
        "img": "PGltZyBzcmM9Imh0dHBzOi8vd3d3LnZ1bHRyLmNvbS9tZWRpYS9iYW5uZXJzL2Jhbm5lcl8zMDB4MjUwLnBuZyIgd2lkdGg9IjIwMCIgaGVpZ2h0PSIxNTAiPg=="
      },
      {
        "url": "1004",
        "img": "PGltZyBzcmM9Imh0dHBzOi8vd3d3LnZ1bHRyLmNvbS9tZWRpYS9iYW5uZXJzL2Jhbm5lcl8zMDB4MjUwLnBuZyIgd2lkdGg9IjIwMCIgaGVpZ2h0PSIxNTAiPg=="
      }
    ],
    "adsRight": [
      {
        "url": "https://www.vultr.com/?ref=8539427",
        "img": "PGltZyBzcmM9Imh0dHBzOi8vd3d3LnZ1bHRyLmNvbS9tZWRpYS9iYW5uZXJzL2Jhbm5lcl8zMDB4MjUwLnBuZyIgd2lkdGg9IjIwMCIgaGVpZ2h0PSIxNTAiPg=="
      },
      {
        "url": "1002",
        "img": "PGltZyBzcmM9Imh0dHBzOi8vd3d3LnZ1bHRyLmNvbS9tZWRpYS9iYW5uZXJzL2Jhbm5lcl8zMDB4MjUwLnBuZyIgd2lkdGg9IjIwMCIgaGVpZ2h0PSIxNTAiPg=="
      },
      {
        "url": "1003",
        "img": "PGltZyBzcmM9Imh0dHBzOi8vd3d3LnZ1bHRyLmNvbS9tZWRpYS9iYW5uZXJzL2Jhbm5lcl8zMDB4MjUwLnBuZyIgd2lkdGg9IjIwMCIgaGVpZ2h0PSIxNTAiPg=="
      },
      {
        "url": "1004",
        "img": "PGltZyBzcmM9Imh0dHBzOi8vd3d3LnZ1bHRyLmNvbS9tZWRpYS9iYW5uZXJzL2Jhbm5lcl8zMDB4MjUwLnBuZyIgd2lkdGg9IjIwMCIgaGVpZ2h0PSIxNTAiPg=="
      }
    ]
  }
}